##FastQC	0.10.1
>>Basic Statistics	pass
#Measure	Value	
Filename	WtRoBa.1_1.fastq.gz	
File type	Conventional base calls	
Encoding	Sanger / Illumina 1.9	
Total Sequences	8534278	
Filtered Sequences	0	
Sequence length	100	
%GC	44	
>>END_MODULE
>>Per base sequence quality	pass
#Base	Mean	Median	Lower Quartile	Upper Quartile	10th Percentile	90th Percentile
1	32.314212403205055	34.0	31.0	34.0	30.0	34.0
2	32.501440426477785	34.0	31.0	34.0	31.0	34.0
3	32.578906499178956	34.0	31.0	34.0	31.0	34.0
4	36.07012356522719	37.0	35.0	37.0	35.0	37.0
5	36.11853902579691	37.0	35.0	37.0	35.0	37.0
6	36.00288987539426	37.0	35.0	37.0	35.0	37.0
7	35.97921394170661	37.0	35.0	37.0	35.0	37.0
8	35.95649087128402	37.0	35.0	37.0	35.0	37.0
9	37.67538097540296	39.0	38.0	39.0	35.0	39.0
10-14	37.896041352297175	39.2	37.6	39.4	35.0	39.4
15-19	38.8860727995971	40.0	38.2	41.0	35.0	41.0
20-24	38.869650391046555	40.0	38.0	41.0	35.0	41.0
25-29	38.74324028347799	40.0	38.0	41.0	34.0	41.0
30-34	38.61660986436111	40.0	38.0	41.0	34.0	41.0
35-39	38.481775869030756	40.0	38.0	41.0	34.0	41.0
40-44	38.319146317942774	40.0	38.0	41.0	33.4	41.0
45-49	38.09655977928068	40.0	38.0	41.0	33.0	41.0
50-54	37.77031943416889	40.0	37.0	41.0	32.8	41.0
55-59	37.274876046925115	39.2	36.2	41.0	31.6	41.0
60-64	36.63082374396522	38.6	35.0	40.4	31.0	41.0
65-69	35.78951395771265	36.8	34.8	39.4	30.4	41.0
70-74	34.8052443569333	35.6	34.0	38.4	29.6	40.0
75-79	34.05422466903468	35.0	34.0	36.6	29.4	38.8
80-84	33.393942475274415	35.0	34.0	35.6	29.0	37.0
85-89	32.89517032372275	35.0	33.6	35.0	29.0	36.0
90-94	32.62583018739254	35.0	33.4	35.0	29.0	35.4
95-99	32.49391927471779	35.0	34.0	35.0	29.0	35.0
100	32.02210743545031	35.0	33.0	35.0	27.0	35.0
>>END_MODULE
>>Per sequence quality scores	pass
#Quality	Count
2	1230.0
3	429.0
4	465.0
5	669.0
6	1040.0
7	1710.0
8	2743.0
9	3734.0
10	4982.0
11	6328.0
12	7464.0
13	8786.0
14	9858.0
15	10693.0
16	11352.0
17	12223.0
18	13296.0
19	14226.0
20	15512.0
21	17248.0
22	20071.0
23	24359.0
24	30439.0
25	39264.0
26	50446.0
27	64839.0
28	81387.0
29	101724.0
30	126583.0
31	159607.0
32	205278.0
33	271219.0
34	373273.0
35	558092.0
36	971104.0
37	2012953.0
38	2720638.0
39	578580.0
40	434.0
>>END_MODULE
>>Per base sequence content	fail
#Base	G	A	T	C
1	20.473473976300514	14.769820417334618	8.007055041654468	56.74965056471039
2	16.30311927482884	22.63553361173565	45.41220997935422	15.64913713408128
3	16.274792079658056	27.280105007125382	28.58956551450515	27.855537398711412
4	21.202613741900603	33.47512232434894	21.601522706431638	23.72074122731882
5	23.23636516176295	35.237802190179416	23.247660786302017	18.278171861755617
6	17.558363638664527	37.15315648049764	25.64186058719616	19.646619293641667
7	16.50711401714357	18.28589366317807	43.156515407630266	22.050476912048094
8	17.18451168335505	22.5356849167557	32.3488290397852	27.930974360104045
9	19.438469194464954	21.647794927702144	34.23477650950672	24.67895936832618
10-14	20.960547570632222	28.934592943890507	27.122095155559734	22.98276432991754
15-19	21.55723542167246	27.95379761474843	27.429317395097748	23.059649568481362
20-24	21.51506196540586	28.390809392428977	27.560313830882944	22.53381481128222
25-29	21.415269106537192	28.22931008340717	27.673555982122917	22.68186482793272
30-34	21.47548275319834	28.005049753476506	27.592546200158935	22.926921293166217
35-39	21.759225560732848	28.151869437578668	27.486196254680245	22.60270874700824
40-44	21.781730123621305	28.02578131607548	27.551137511015288	22.641351049287923
45-49	21.820401794492994	27.839154435178166	27.564001748532274	22.776442021796566
50-54	21.97653793082793	27.765895166236117	27.613924237077086	22.643642665858867
55-59	21.978160193189005	27.848053832136994	27.49466765203153	22.67911832264247
60-64	21.999996859697397	27.694502082407308	27.518082694338386	22.78741836355691
65-69	22.11014744330667	27.635325565564695	27.591056741360365	22.66347024976827
70-74	22.11866784645069	27.671371483927746	27.50427707641945	22.705683593202114
75-79	22.13850519692292	27.607017090942264	27.537194054631968	22.717283657502843
80-84	22.24046572248702	27.67726159077245	27.493145505116424	22.589127181624107
85-89	22.209711429235117	27.69750127441042	27.505017961734502	22.58776933461996
90-94	22.241674415099194	27.544723821304757	27.536458253751565	22.677143509844484
95-99	22.3616591733783	27.647109015692678	27.537646676172038	22.453585134756977
100	22.30065278296929	27.620453163319947	27.207328604923937	22.871565448786825
>>END_MODULE
>>Per base GC content	fail
#Base	%GC
1	77.22312454101092
2	31.952256408910124
3	44.13032947836946
4	44.923354969219425
5	41.514537023518564
6	37.204982932306194
7	38.55759092919166
8	45.1154860434591
9	44.11742856279113
10-14	43.94331190054976
15-19	44.61688499015383
20-24	44.048876776688076
25-29	44.09713393446991
30-34	44.40240404636456
35-39	44.361934307741095
40-44	44.42308117290922
45-49	44.596843816289564
50-54	44.6201805966868
55-59	44.65727851583148
60-64	44.78741522325431
65-69	44.77361769307494
70-74	44.8243514396528
75-79	44.85578885442577
80-84	44.829592904111124
85-89	44.79748076385508
90-94	44.918817924943674
95-99	44.81524430813528
100	45.17221823175612
>>END_MODULE
>>Per sequence GC content	pass
#GC Content	Count
0	5.0
1	6.0
2	3.5
3	1.0
4	2.5
5	2.0
6	1.5
7	3.0
8	5.5
9	10.0
10	12.0
11	17.5
12	32.0
13	42.0
14	66.0
15	106.5
16	148.0
17	230.5
18	416.0
19	683.0
20	1070.5
21	1693.0
22	2527.5
23	3824.0
24	5795.0
25	8540.0
26	12156.5
27	17096.0
28	23371.0
29	31282.5
30	41096.0
31	51508.0
32	61685.5
33	74265.5
34	91143.5
35	113024.0
36	146079.5
37	190290.5
38	241839.0
39	300959.5
40	368333.5
41	432007.5
42	492228.5
43	548678.0
44	585681.5
45	598395.5
46	589879.5
47	564542.0
48	521934.5
49	467387.0
50	404034.5
51	340731.0
52	280241.0
53	223042.5
54	174255.0
55	132921.0
56	100792.0
57	76899.0
58	58016.5
59	42744.5
60	30999.5
61	21818.0
62	15118.5
63	10552.5
64	7170.0
65	5392.0
66	4383.5
67	3229.5
68	2411.5
69	2343.0
70	2388.5
71	1702.0
72	928.5
73	534.5
74	479.5
75	482.5
76	347.5
77	116.0
78	34.0
79	14.0
80	13.5
81	12.5
82	6.5
83	3.5
84	3.0
85	2.0
86	0.5
87	0.0
88	0.5
89	1.0
90	0.5
91	0.0
92	0.0
93	0.0
94	0.0
95	0.0
96	0.0
97	0.5
98	0.5
99	1.0
100	3.0
>>END_MODULE
>>Per base N content	pass
#Base	N-Count
1	0.02273185851222564
2	0.020880500963291797
3	0.0
4	0.0
5	0.0
6	3.0465377387518897E-4
7	0.0
8	0.0
9	0.0
10-14	0.0
15-19	0.0
20-24	0.0
25-29	0.0
30-34	0.0
35-39	0.0
40-44	5.3900283070225736E-5
45-49	4.054238683108284E-4
50-54	0.001708404624269329
55-59	5.27285377860904E-4
60-64	8.038172649168448E-4
65-69	6.491468874109796E-4
70-74	7.100776421860174E-4
75-79	0.001544360284490381
80-84	0.001136592925611282
85-89	0.001588886605287524
90-94	9.233352838986496E-4
95-99	2.1794462284917363E-4
100	5.624377363849642E-4
>>END_MODULE
>>Sequence Length Distribution	pass
#Length	Count
100	8534278.0
>>END_MODULE
>>Sequence Duplication Levels	fail
#Total Duplicate Percentage	54.31709535247067
#Duplication Level	Relative count
1	100.0
2	31.43714714500107
3	16.546028116098867
4	10.41132811303611
5	6.931016528672499
6	5.148492613653766
7	4.093883676532144
8	3.1005298567651174
9	2.624781778644424
10++	23.890516686914886
>>END_MODULE
>>Overrepresented sequences	pass
>>END_MODULE
>>Kmer Content	warn
#Sequence	Count	Obs/Exp Overall	Obs/Exp Max	Max Obs/Exp Position
GAAGA	2816745	3.464674	6.3799257	2
TCTTC	3168765	3.4441843	7.1176553	7
CTTCT	2862255	3.1110334	10.031397	1
AGAAG	2486310	3.0582297	4.401437	3
TTCTT	3109670	2.8137715	5.676085	6
AAGAA	2907695	2.785854	6.0669518	2
TCTCT	2415620	2.6255782	5.046998	7
CTCTC	1819890	2.3760924	6.4255652	1
CTTCA	2122435	2.3026135	9.274521	1
CTCCT	1744185	2.27725	9.214846	1
CAAGA	1962330	2.2626276	6.289716	1
TCTTG	1933250	2.2416005	5.348962	7
CTCTT	2024715	2.200697	6.3617425	1
CTCCA	1673925	2.1814458	10.764628	1
CTTCC	1580425	2.063441	7.476326	1
CAACA	1858425	2.008687	5.9873433	1
CAAAG	1732015	1.9970672	6.3954673	1
AAAGA	2054655	1.9685585	5.2344127	2
CTTTG	1686395	1.9553726	9.298188	1
CTTGA	1658130	1.9190178	8.534508	1
CTTGG	1245620	1.8507656	8.146434	1
CTTTC	1631350	1.773142	7.0021443	1
AAGAT	1834630	1.7610339	5.7052813	3
CTCTG	1232315	1.7163812	6.3343124	1
TCCAA	1560925	1.690281	5.420636	7
CAAAA	1848180	1.6598923	6.320665	1
CTTGT	1428695	1.6565696	5.6880407	1
CTCAA	1497990	1.6221305	9.030532	1
TCAAA	1800095	1.6197231	5.8809476	2
TTTGA	1660075	1.5994339	5.8646193	2
AGATC	1368795	1.5812085	5.6806064	4
GATCT	1351630	1.5642937	5.452338	5
CTCCG	899205	1.5044318	7.2361183	1
CTGGA	1005725	1.4915415	6.363718	1
CTCAG	1058440	1.4714602	8.922682	1
GAATC	1262465	1.458378	5.010245	4
CTGAG	966990	1.4340955	5.0448275	1
CTTTT	1507375	1.3639418	7.064912	1
CTGAA	1169720	1.3512405	5.48881	1
CTCAT	1117000	1.2118248	5.531476	1
CTTCG	853695	1.1890353	5.4608445	1
CTCCC	687555	1.0783195	5.102241	1
CTCAC	814195	1.0610526	5.4561563	1
CTCGA	755315	1.0500511	6.689675	1
CTCGT	731350	1.0186319	5.9624534	1
CTCGG	510570	0.9112613	5.851845	1
>>END_MODULE
