##FastQC	0.10.1
>>Basic Statistics	pass
#Measure	Value	
Filename	WtShDm.2_1.fastq.gz	
File type	Conventional base calls	
Encoding	Sanger / Illumina 1.9	
Total Sequences	15771000	
Filtered Sequences	0	
Sequence length	100	
%GC	46	
>>END_MODULE
>>Per base sequence quality	pass
#Base	Mean	Median	Lower Quartile	Upper Quartile	10th Percentile	90th Percentile
1	32.32311489442648	34.0	31.0	34.0	30.0	34.0
2	32.499181155285015	34.0	31.0	34.0	31.0	34.0
3	32.58041747511255	34.0	31.0	34.0	31.0	34.0
4	36.06988104749223	37.0	35.0	37.0	35.0	37.0
5	36.11953294020671	37.0	35.0	37.0	35.0	37.0
6	36.00102517278549	37.0	35.0	37.0	35.0	37.0
7	35.97680736795384	37.0	35.0	37.0	35.0	37.0
8	35.957705662291545	37.0	35.0	37.0	35.0	37.0
9	37.673009954980664	39.0	38.0	39.0	35.0	39.0
10-14	37.8987584300298	39.2	37.6	39.4	35.0	39.4
15-19	38.883722249698806	40.0	38.2	41.0	35.0	41.0
20-24	38.858708566355965	40.0	38.0	41.0	35.0	41.0
25-29	38.72197751569336	40.0	38.0	41.0	34.0	41.0
30-34	38.58831994166508	40.0	38.0	41.0	34.0	41.0
35-39	38.428331951049394	40.0	38.0	41.0	34.0	41.0
40-44	38.21462308033732	40.0	38.0	41.0	33.0	41.0
45-49	37.92635642635217	40.0	37.2	41.0	33.0	41.0
50-54	37.52199964491789	39.6	36.4	41.0	32.4	41.0
55-59	36.95706093462685	39.0	35.2	41.0	31.2	41.0
60-64	36.25798995624881	37.6	35.0	40.0	31.0	41.0
65-69	35.4031203094287	36.4	34.4	39.2	30.0	41.0
70-74	34.45190500285334	35.2	34.0	37.6	29.2	39.6
75-79	33.76972134931202	35.0	34.0	36.4	29.0	38.4
80-84	33.18771627671042	35.0	33.8	35.4	29.0	36.6
85-89	32.74719732420265	35.0	33.0	35.0	29.0	36.0
90-94	32.5157719865576	35.0	33.2	35.0	29.0	35.0
95-99	32.41644716251348	35.0	34.0	35.0	29.0	35.0
100	31.950901591528755	35.0	33.0	35.0	27.0	35.0
>>END_MODULE
>>Per sequence quality scores	pass
#Quality	Count
2	2483.0
3	843.0
4	954.0
5	1325.0
6	2185.0
7	3767.0
8	5808.0
9	7968.0
10	10259.0
11	12885.0
12	15258.0
13	17454.0
14	18881.0
15	20273.0
16	21773.0
17	23096.0
18	25083.0
19	26593.0
20	29413.0
21	32865.0
22	38237.0
23	46225.0
24	58494.0
25	75919.0
26	99001.0
27	125997.0
28	159560.0
29	195016.0
30	239666.0
31	303659.0
32	391256.0
33	519206.0
34	724935.0
35	1108595.0
36	2028106.0
37	3961405.0
38	4551960.0
39	864004.0
40	593.0
>>END_MODULE
>>Per base sequence content	fail
#Base	G	A	T	C
1	22.04171316278573	13.742086939259975	8.60828117681717	55.607918721137125
2	17.70362802712679	22.14112346484604	42.316402565443006	17.838845942584168
3	17.86238031830575	26.320379176970388	27.477046477712257	28.340194027011606
4	22.767414875404224	32.50869317101008	20.434094223574917	24.28979773001078
5	24.663502631412086	34.0509098979139	22.28688098408471	18.99870648658931
6	18.753899177316782	36.23709534394081	24.854981832108454	20.154023646633952
7	17.35849977807368	17.733548918901782	42.13373280071016	22.774218502314376
8	18.262443725825882	21.69411578213176	31.339667744594507	28.703772747447847
9	20.592670090672755	21.34778390717139	32.73310506626086	25.326440935894993
10-14	21.88873882442458	28.00662989030499	26.217428190983448	23.88720309428698
15-19	22.46710544670598	26.926315389005133	26.681478663369475	23.92510050091941
20-24	22.335815103671294	27.38680869951176	26.793011223131064	23.484364973685878
25-29	22.381181916175258	27.177004628748968	26.799426796018004	23.642386659057767
30-34	22.32256800456534	27.04063534335172	26.825994546953268	23.810802105129667
35-39	22.676555703506434	27.2505294527931	26.572889480692407	23.500025363008053
40-44	22.79807696502347	26.893167474005686	26.716311075314298	23.592444485656547
45-49	22.82344520921695	26.812149645860572	26.7243577701802	23.640047374742274
50-54	22.961514465268365	26.784381096305292	26.70102028694923	23.553084151477115
55-59	22.879461412545215	26.814003389480323	26.628652042799906	23.677883155174552
60-64	22.99838254941475	26.55878894479633	26.64045090428186	23.802377601507064
65-69	23.00067239051867	26.83932083345481	26.610310362482544	23.549696413543973
70-74	23.084098715335088	26.736078125746033	26.519799810828605	23.660023348090277
75-79	23.12766911029997	26.55619059469798	26.58283992733536	23.733300367666693
80-84	23.223075045998232	26.578398860538897	26.58451268201364	23.61401341144923
85-89	23.20760781949755	26.716584080614798	26.559881246426052	23.515926853461597
90-94	23.208974851070412	26.4904546442041	26.69607080337155	23.60449970135393
95-99	23.30787725333547	26.64154622478767	26.73816054501205	23.312415976864813
100	23.066822692278794	26.60472141280325	26.567139573068527	23.761316321849428
>>END_MODULE
>>Per base GC content	fail
#Base	%GC
1	77.64963188392285
2	35.54247396971096
3	46.20257434531735
4	47.057212605415
5	43.66220911800139
6	38.907922823950734
7	40.132718280388055
8	46.96621647327373
9	45.91911102656775
10-14	45.77594191871156
15-19	46.392205947625385
20-24	45.82018007735718
25-29	46.02356857523302
30-34	46.13337010969501
35-39	46.17658106651449
40-44	46.39052145068002
45-49	46.46349258395922
50-54	46.51459861674548
55-59	46.557344567719774
60-64	46.80076015092181
65-69	46.55036880406264
70-74	46.744122063425365
75-79	46.86096947796666
80-84	46.837088457447464
85-89	46.72353467295915
90-94	46.813474552424346
95-99	46.620293230200275
100	46.828139014128226
>>END_MODULE
>>Per sequence GC content	pass
#GC Content	Count
0	13.0
1	9.0
2	4.0
3	2.0
4	3.0
5	4.0
6	4.0
7	6.5
8	7.5
9	9.5
10	18.0
11	28.0
12	34.0
13	47.0
14	77.5
15	106.5
16	163.0
17	273.0
18	477.5
19	734.0
20	1122.0
21	1744.0
22	2690.0
23	4219.5
24	6430.5
25	9269.5
26	13318.0
27	19425.5
28	27746.0
29	37970.5
30	50720.5
31	65050.5
32	80458.5
33	100565.0
34	125913.0
35	158858.0
36	212086.5
37	273138.0
38	336905.5
39	417062.0
40	516891.5
41	627549.5
42	741503.5
43	847254.5
44	929018.0
45	986601.0
46	1013821.5
47	1009445.5
48	965061.5
49	893552.0
50	811007.0
51	720992.5
52	626866.0
53	543150.5
54	466752.5
55	399322.5
56	349067.0
57	299843.0
58	250618.5
59	199658.0
60	163007.5
61	130173.5
62	89475.5
63	60376.5
64	40003.0
65	27937.5
66	20756.0
67	13189.0
68	10395.5
69	14419.5
70	18712.5
71	13958.5
72	6634.5
73	3812.0
74	3983.5
75	4565.5
76	3579.5
77	1117.0
78	123.0
79	36.0
80	20.0
81	13.5
82	9.5
83	3.5
84	2.5
85	3.0
86	1.5
87	1.0
88	0.5
89	0.5
90	0.5
91	0.5
92	0.5
93	0.0
94	0.0
95	0.0
96	0.0
97	0.5
98	0.5
99	0.5
100	1.5
>>END_MODULE
>>Per base N content	pass
#Base	N-Count
1	0.022541373406886056
2	0.019776805529135758
3	0.0
4	0.0
5	0.0
6	2.8533384059349436E-4
7	0.0
8	0.0
9	0.0
10-14	0.0
15-19	0.0
20-24	0.0
25-29	0.0
30-34	0.0
35-39	0.0
40-44	8.116162576881619E-5
45-49	4.096125800519942E-4
50-54	0.001774142413290216
55-59	5.503772747447848E-4
60-64	8.357111153382791E-4
65-69	6.683152621900958E-4
70-74	7.418679855430854E-4
75-79	0.0015763109504787268
80-84	0.001118508655126498
85-89	0.0016346458690000634
90-94	0.001000570667681187
95-99	2.9167459260668314E-4
100	5.389639211210449E-4
>>END_MODULE
>>Sequence Length Distribution	pass
#Length	Count
100	1.5771E7
>>END_MODULE
>>Sequence Duplication Levels	fail
#Total Duplicate Percentage	68.01044059302569
#Duplication Level	Relative count
1	100.0
2	34.07877387433256
3	19.20260055614303
4	12.780845702946513
5	9.16591600412538
6	7.285995900729774
7	5.866917322680453
8	4.829044765597462
9	4.284651235655818
10++	63.605268998289795
>>END_MODULE
>>Overrepresented sequences	warn
#Sequence	Count	Percentage	Possible Source
GATCGGAAGAGCACACGTCTGAACTCCAGTCACTGACCAATCTCGTATGC	17177	0.1089150973305434	TruSeq Adapter, Index 4 (100% over 50bp)
>>END_MODULE
>>Kmer Content	warn
#Sequence	Count	Obs/Exp Overall	Obs/Exp Max	Max Obs/Exp Position
GAAGA	5026465	3.413674	6.1909795	2
TCTTC	5629715	3.3837137	7.0554047	7
CTTCT	5076635	3.0512877	8.339712	1
AAGAA	5099925	2.9241629	6.677218	2
TTCTT	5357110	2.8783796	5.5553865	6
CTCTC	3465140	2.329795	5.3188424	1
CTTCA	3833905	2.307949	8.166284	1
CTTCC	3306890	2.223395	7.2434278	1
CAAGA	3361790	2.1528826	5.9849205	1
CTCTT	3563715	2.1419542	5.2710905	1
AAAGA	3500440	2.0070603	5.1337814	2
CTCCT	2977380	2.0018482	7.414221	1
CAACA	3302825	1.994462	6.080207	1
CTTGA	3097430	1.9774065	7.633959	1
CAAAG	3049500	1.9528928	5.749054	1
CTTGG	2575470	1.947478	7.603869	1
CTTTG	3048210	1.9429501	8.105666	1
CTCCA	2846310	1.9167114	8.573752	1
AACAA	3534870	1.9111801	5.4205303	2
CTTTC	3111605	1.8702155	6.543044	1
TTGAA	3162110	1.8074212	5.16416	2
TTCAA	3341115	1.8007947	5.6136045	7
AAGAT	3026325	1.7325097	5.3794417	3
CTCAA	2840530	1.7126236	7.8756156	1
CTCTG	2385170	1.7006928	5.2085156	1
TCAAA	3071750	1.6581979	5.5149665	2
TTTGA	2901295	1.6557573	5.7687373	2
CTCCG	2044140	1.6304475	6.9850693	1
CAAAA	3009605	1.6271877	5.9955587	1
TCCAA	2685745	1.6193	5.2817583	7
AAAAA	3330890	1.6124135	5.5999203	2
CTTGT	2465765	1.5716957	5.3493967	1
GAATC	2321330	1.4842567	5.1071963	4
AGATC	2283795	1.4602569	5.088475	4
CTCAG	2039590	1.4565556	6.862027	1
GATCT	2235975	1.4274516	5.0667515	5
CTGAG	1857320	1.4066321	5.115106	1
CTGGA	1830710	1.386479	5.5726104	1
CTTTT	2531490	1.3601717	6.1633725	1
AATCT	2436430	1.3131876	5.0408554	5
CTTCG	1793980	1.2791578	5.0455356	1
CTCGA	1401050	1.0005476	5.8102603	1
CTCGG	1145145	0.9686487	6.2167053	1
>>END_MODULE
