##FastQC	0.10.1
>>Basic Statistics	pass
#Measure	Value	
Filename	WtShBa.3_1.fastq.gz	
File type	Conventional base calls	
Encoding	Sanger / Illumina 1.9	
Total Sequences	5130790	
Filtered Sequences	0	
Sequence length	100	
%GC	45	
>>END_MODULE
>>Per base sequence quality	pass
#Base	Mean	Median	Lower Quartile	Upper Quartile	10th Percentile	90th Percentile
1	32.231824533843714	34.0	31.0	34.0	30.0	34.0
2	32.38903794542361	34.0	31.0	34.0	30.0	34.0
3	31.384738412603127	34.0	31.0	34.0	27.0	34.0
4	35.51107938543577	37.0	35.0	37.0	33.0	37.0
5	35.75800997507206	37.0	35.0	37.0	33.0	37.0
6	35.8222088606238	37.0	35.0	37.0	35.0	37.0
7	35.83666784257395	37.0	35.0	37.0	35.0	37.0
8	35.85142541402006	37.0	35.0	37.0	35.0	37.0
9	37.54984476074834	39.0	37.0	39.0	35.0	39.0
10-14	37.750526410162955	39.2	37.2	39.4	34.6	39.4
15-19	38.73108418001906	40.0	38.0	41.0	34.2	41.0
20-24	38.59051163660957	40.0	38.0	41.0	34.0	41.0
25-29	38.31122053329019	40.0	38.0	41.0	33.8	41.0
30-34	38.084057425854496	40.0	38.0	41.0	33.2	41.0
35-39	37.985409303440605	40.0	37.8	41.0	33.0	41.0
40-44	37.852020760935446	40.0	37.6	41.0	32.8	41.0
45-49	37.80776270320944	40.0	37.2	41.0	33.0	41.0
50-54	37.49898877170962	39.8	36.6	41.0	32.0	41.0
55-59	37.011131151343164	39.0	35.6	41.0	31.0	41.0
60-64	36.3412439799719	38.0	35.0	40.0	31.0	41.0
65-69	35.457743271504	36.6	34.4	39.4	29.8	41.0
70-74	34.429081642398145	35.4	34.0	38.0	29.0	39.6
75-79	32.676777416343285	34.4	31.8	35.8	27.0	37.4
80-84	32.94173626283672	35.0	33.0	35.4	28.8	36.8
85-89	32.388806246211594	35.0	33.0	35.0	27.2	36.0
90-94	31.915389481931633	35.0	32.6	35.0	26.4	35.0
95-99	31.31268638942541	34.4	32.0	35.0	24.8	35.0
100	28.139226317974426	32.0	27.0	34.0	15.0	35.0
>>END_MODULE
>>Per sequence quality scores	pass
#Quality	Count
2	20.0
3	8.0
4	6.0
5	30.0
6	126.0
7	575.0
8	1811.0
9	2445.0
10	2912.0
11	3569.0
12	4182.0
13	4760.0
14	5323.0
15	6072.0
16	6922.0
17	7984.0
18	9283.0
19	10595.0
20	11821.0
21	13248.0
22	15009.0
23	18086.0
24	22418.0
25	28906.0
26	37571.0
27	48424.0
28	62367.0
29	79056.0
30	99598.0
31	124399.0
32	157704.0
33	205564.0
34	280051.0
35	411701.0
36	705992.0
37	1303819.0
38	1278150.0
39	160252.0
40	31.0
>>END_MODULE
>>Per base sequence content	fail
#Base	G	A	T	C
1	20.13857418195915	16.161859418106992	6.7752447824082696	56.924321617525585
2	14.491199211037674	20.770602577770674	51.5556083955882	13.182589815603446
3	16.02788264575241	26.452748991870646	29.279136351322116	28.24023201105483
4	21.426096176222376	34.95056316863485	22.041362051457963	21.581978603684814
5	25.682848060435138	35.67947625999115	21.917638414357242	16.720037265216465
6	17.911764075317834	39.01915689396759	23.523745855901332	19.545333174813234
7	17.161119437747406	19.635650650289723	42.195120049738925	21.008109862223947
8	16.266906525999435	22.354279121031187	33.66835679140716	27.71045756156222
9	18.938545362762746	21.141892082846475	34.89887822215119	25.02068433223959
10-14	21.266878265216725	28.937178229062415	26.949778640110626	22.846164865610234
15-19	21.907744498230446	27.88917938804537	27.057326269879606	23.145749843844577
20-24	21.810662932727503	28.289890687163833	27.14087797986823	22.75856840024044
25-29	21.83520572819364	28.16168870075501	27.148562916003723	22.854542655047634
30-34	21.83895304514693	27.96539133619141	27.171796862522957	23.023858756138704
35-39	22.145273267762438	27.988006444091518	27.168087546189163	22.698632741956885
40-44	22.178036953190723	27.80626287776533	27.13939566282245	22.876304506221494
45-49	22.26156966883282	27.689662409462894	27.176780323559136	22.87198759814515
50-54	22.37799081740563	27.593489786343767	27.219401565694774	22.80911783055583
55-59	22.340131379438876	27.710300940200998	27.087320343512978	22.862247336847147
60-64	22.352558301348378	27.551859135050698	27.065642586706346	23.02993997689458
65-69	22.451180673936317	27.660150975512966	27.191300750509782	22.697367600040934
70-74	22.515285068799624	27.569196874649666	27.099848411735174	22.815669644815532
75-79	22.558423265432886	27.442026984678126	27.15288844802061	22.846661301868373
80-84	22.632478341953465	27.405769829427655	27.18036990955703	22.78138191906185
85-89	22.677631513545343	27.459319915177012	27.15748839278213	22.705560178495514
90-94	22.640362480891753	27.232696228032438	27.244083597089386	22.882857693986423
95-99	22.800329950020213	27.401799521837557	27.319144390947116	22.47872613719512
100	22.37598506112042	27.622562915958277	27.00109710564081	23.000354917280497
>>END_MODULE
>>Per base GC content	fail
#Base	%GC
1	77.06289579948474
2	27.67378902664112
3	44.268114656807235
4	43.00807477990719
5	42.40288532565161
6	37.45709725013107
7	38.16922929997135
8	43.97736408756165
9	43.959229695002335
10-14	44.11304313082696
15-19	45.05349434207503
20-24	44.569231332967945
25-29	44.689748383241266
30-34	44.86281180128564
35-39	44.84390600971932
40-44	45.054341459412214
45-49	45.13355726697797
50-54	45.18710864796146
55-59	45.20237871628602
60-64	45.382498278242956
65-69	45.148548273977255
70-74	45.330954713615164
75-79	45.405084567301266
80-84	45.413860261015316
85-89	45.38319169204086
90-94	45.523220174878176
95-99	45.27905608721534
100	45.376339978400914
>>END_MODULE
>>Per sequence GC content	pass
#GC Content	Count
0	22.0
1	15.0
2	5.5
3	4.0
4	3.5
5	3.0
6	6.0
7	11.5
8	15.5
9	15.5
10	18.5
11	35.0
12	45.0
13	58.0
14	82.0
15	104.0
16	149.5
17	233.5
18	388.0
19	567.5
20	772.5
21	1122.5
22	1735.0
23	2625.5
24	3927.5
25	5572.0
26	7656.0
27	10715.0
28	15123.5
29	20168.5
30	26104.5
31	32664.5
32	39535.5
33	48561.0
34	58691.0
35	70228.0
36	87195.5
37	108723.5
38	132726.0
39	161681.5
40	197102.5
41	234864.0
42	272017.0
43	306302.0
44	331294.5
45	345251.0
46	347002.0
47	334169.0
48	312095.5
49	285138.0
50	252541.0
51	216225.5
52	179411.5
53	145934.5
54	116400.5
55	93282.0
56	77396.0
57	64232.0
58	52553.0
59	41368.0
60	31477.0
61	22845.5
62	13772.0
63	7784.0
64	4958.0
65	2916.5
66	1888.0
67	1096.0
68	648.5
69	472.5
70	410.0
71	258.0
72	130.0
73	85.0
74	66.0
75	40.0
76	31.5
77	16.5
78	3.5
79	2.5
80	3.0
81	2.0
82	1.0
83	0.5
84	1.0
85	0.5
86	0.0
87	0.0
88	0.5
89	0.5
90	0.0
91	0.0
92	0.0
93	0.0
94	0.0
95	0.0
96	0.0
97	0.0
98	0.0
99	0.0
100	0.0
>>END_MODULE
>>Per base N content	pass
#Base	N-Count
1	0.049933830852558765
2	0.0
3	0.0
4	0.0
5	0.0
6	0.0
7	0.0
8	9.745087988399446E-5
9	0.0018515667177958948
10-14	9.745087988399446E-5
15-19	8.575677429791514E-5
20-24	0.0037810941394989853
25-29	0.025309942523471046
30-34	0.026685948947433046
35-39	0.0292781423523473
40-44	0.04254315612215663
45-49	0.03915186550219362
50-54	0.038976453918402425
55-59	0.03387002781248112
60-64	0.011023643532477456
65-69	0.045396517885159984
70-74	0.03440016059905005
75-79	0.006006872236049419
80-84	0.0016995433451768634
85-89	0.011245831538612963
90-94	0.010610451801769318
95-99	0.006158895608668451
100	3.313329916055812E-4
>>END_MODULE
>>Sequence Length Distribution	pass
#Length	Count
100	5130790.0
>>END_MODULE
>>Sequence Duplication Levels	fail
#Total Duplicate Percentage	54.73739819502531
#Duplication Level	Relative count
1	100.0
2	31.500573851810064
3	14.57778123601844
4	8.691423347014998
5	6.078938665940436
6	4.43033049973739
7	3.4363024490828096
8	2.720446631781664
9	2.246775730931585
10++	20.843464897776567
>>END_MODULE
>>Overrepresented sequences	pass
>>END_MODULE
>>Kmer Content	warn
#Sequence	Count	Obs/Exp Overall	Obs/Exp Max	Max Obs/Exp Position
GAAGA	1740290	3.4838083	7.5641294	2
TCTTC	1867350	3.4776106	7.223827	7
CTTCT	1695910	3.1583338	9.8026	1
AGAAG	1556470	3.1158276	5.3081446	3
AAGAA	1842915	2.9301121	6.815443	2
TTCTT	1824135	2.8643026	5.219928	6
CTCTC	1103155	2.4366047	8.444465	1
CTTCA	1304375	2.406296	10.52318	1
TCCTC	1077895	2.3808115	5.3597927	2
GGAAG	930940	2.3464324	5.167181	1
CAAGA	1213490	2.3100271	6.887709	1
CTTCC	1020270	2.2535317	6.5753384	1
CTCTT	1198990	2.2329078	8.001374	1
TCTTG	1139415	2.2314587	5.2852006	7
AGCTT	1131255	2.194617	5.065917	4
CTCCT	970465	2.1435244	10.4736805	1
CAACA	1139585	2.0628893	6.126574	1
CTCCA	941940	2.0609293	12.594161	1
CAAAG	1073865	2.0442338	7.234927	1
AAAGA	1278335	2.0324671	6.15106	2
TCAAG	1055510	2.028392	5.3510323	2
CTTGA	1036310	2.0104253	9.879874	1
CTTTG	1018040	1.9937549	10.8311	1
CTTGG	810530	1.9797992	9.560058	1
CTTTC	988050	1.8400692	6.867898	1
CTCTG	785610	1.8247664	9.25483	1
CTCAA	983590	1.7974298	13.038011	1
AAGAT	1090135	1.7497175	6.373547	3
TTGGA	854270	1.7427906	5.341025	2
TTCAA	1130725	1.7422142	5.5928288	2
TTGAA	1048490	1.6988717	5.889985	2
TCCAA	918215	1.6779623	5.327937	7
ATCTT	1076995	1.675201	5.1648073	6
CTTGT	837890	1.6409447	6.492832	1
TCAAA	1060225	1.6182061	7.217739	2
TTTGA	970895	1.5880978	6.962995	2
CTCCG	575135	1.5843948	7.2634172	1
CTCAG	680310	1.5653031	12.401392	1
CTGAG	619545	1.4990501	7.328421	1
CTGGA	618990	1.4977072	7.3458424	1
AGATC	775195	1.4897062	6.287753	4
GATCT	759430	1.4732825	6.0023518	5
CTTGC	621045	1.442525	5.286882	1
TCAGA	748420	1.4382519	6.6500683	2
CTGAA	735805	1.4140093	6.336083	1
AGATT	830665	1.3459293	5.5308604	4
CTTTT	845990	1.3283948	5.907517	1
AATCT	855120	1.3175637	5.2632656	5
CTTCG	542950	1.2611308	5.978123	1
CTCAC	537175	1.1753187	8.233674	1
CTCAT	635020	1.1714774	7.306189	1
CTCGA	443295	1.019963	6.6916056	1
CTCGG	342100	0.9910565	5.240941	1
CTCGT	394085	0.91535634	5.563379	1
>>END_MODULE
